CEP_eligibility_calculations
…
##            >                 ========

##            > rows total       11,159

## mutate (grouped): new variable 'pct_gain' with 1,726 unique values and 26% NA

##                   new variable 'raw_gain' with 2,430 unique values and 26% NA

## select: columns reordered (pct_gain, raw_gain, max_enrolled, state, school_district_local_education_agency_or_lea, )

## group_by: no grouping variables

## filter: removed 11,026 rows (99%), 133 rows remaining

## # A tibble: 133 x 13
##    pct_gain raw_gain max_enrolled state school_district~ receives_meals
##       <dbl>    <dbl>        <dbl> <chr> <chr>                     <dbl>
##  1    1        43686        43686 Colo~ denver county  ~              0
##  2    1        22039        22039 Colo~ adams-arapahoe ~              0
##  3    1        15506        15506 Colo~ colorado spring~              0
##  4    1        12708        12708 Colo~ jefferson count~              0
##  5    1        10133        10133 Colo~ greeley       6               0
##  6    1         9098         9098 Colo~ mesa county val~              0
##  7    0.940     7582         7582 Colo~ adams 12 five s~              0
##  8    1         5419         5419 Colo~ adams county   ~              0
##  9    1         3900         3900 Colo~ charter choice                0
## 10    1         3364         3364 Colo~ poudre       r-1              0
## # ... with 123 more rows, and 7 more variables: total_enrollment <dbl>,
## #   um_utilization <dbl>, total_identified <dbl>, total_enrolled <dbl>,
## #   cutoff <dbl>, percent_identified <dbl>, receive_service <lgl>
…
## select: columns reordered (pct_gain, raw_gain, state, school_district_local_education_agency_or_lea, receives_meals, )

## group_by: one grouping variable (state)

## summarise_at: now 51 rows and 5 columns, ungrouped

## mutate: new variable 'current_coverage' with 50 unique values and 0% NA

##         new variable 'optimal_coverage' with 49 unique values and 0% NA

library(usmap)
library(ggplot2)
statepop

## # A tibble: 51 x 4
##    fips  abbr  full                 pop_2015
##    <chr> <chr> <chr>                   <dbl>
##  1 01    AL    Alabama               4858979
##  2 02    AK    Alaska                 738432
##  3 04    AZ    Arizona               6828065
##  4 05    AR    Arkansas              2978204
##  5 06    CA    California           39144818
##  6 08    CO    Colorado              5456574
##  7 09    CT    Connecticut           3590886
##  8 10    DE    Delaware               945934
##  9 11    DC    District of Columbia   672228
## 10 12    FL    Florida              20271272
## # ... with 41 more rows
(statepop<- statepop %>% left_join(map_df,by=c("full"="state")))

## left_join: added 6 columns (receives_meals, raw_gain, max_enrolled, total_enrollment, current_coverage, )

##            > rows only in x    0

##            > rows only in y  ( 0)

##            > matched rows     51

##            >                 ====

##            > rows total       51

## # A tibble: 51 x 10
##    fips  abbr  full  pop_2015 receives_meals raw_gain max_enrolled
##    <chr> <chr> <chr>    <dbl>          <dbl>    <dbl>        <dbl>
##  1 01    AL    Alab~  4858979         208929  260582       469511 
##  2 02    AK    Alas~   738432          37244   10155.       47399.
##  3 04    AZ    Ariz~  6828065         145273  337539       482812 
##  4 05    AR    Arka~  2978204          80732  115769       196501 
##  5 06    CA    Cali~ 39144818        1690225 1885639      3575864 
##  6 08    CO    Colo~  5456574          39950  163635       203585 
##  7 09    CT    Conn~  3590886         151552   79832       231384 
##  8 10    DE    Dela~   945934          62424   16327        78751 
##  9 11    DC    Dist~   672228          83028   38271       121299 
## 10 12    FL    Flor~ 20271272         858135 1686034      2544169 
## # ... with 41 more rows, and 3 more variables: total_enrollment <dbl>,
## #   current_coverage <dbl>, optimal_coverage <dbl>
…
